{ 
    "logfile"            : "/afs/cern.ch/user/l/lpc/tools/log/updateLumi.log",
    "year"               : "2016",
    "startDate"          : "2016-04-01",
    "endDate"            : "2016-12-06",
    "firstFill"          : "4851",
    "lastFill"           : "5456",
    "firstFillIon"       : "5505",
    "lastFillIon"        : "5575",
    "workBaseDir"        : "/eos/project/l/lpc/public/MassiFiles",
    "softwareBase"       : "/afs/cern.ch/user/l/lpc/lpctools",
    "timberClient"       : "/afs/cern.ch/user/l/lpc/lpctools/TimberClient/accsoft-cals-extr-client-nodep.jar",
    "timberClientConfig" : "/afs/cern.ch/user/l/lpc/lpctools/TimberClient/configuration.properties",
    "webBaseDir"         : "/afs/cern.ch/user/l/lpc/www/LHC",
    "srcDir"             : { "ATLAS" : "/afs/cern.ch/atlas/www/GROUPS/DATAPREPARATION/DataSummary/lumifiles",
                             "CMS"   : "/afs/cern.ch/cms/CAF/CMSCOMM/COMM_GLOBAL/LHCFILES",
                             "ALICE" : "/afs/cern.ch/alice/lhc/",
                             "LHCb"  : "/afs/cern.ch/lhcb/online/TFC/LPCfiles" },
    "dataFormat"         : { "ATLAS" : ".tgz",
                             "CMS"   : ".tgz",
                             "ALICE" : ".zip",
                             "LHCb"  : ".tgz" }
}
